main.c:69:6:LCD	24	static
main.c:106:6:LCD_init	8	static
main.c:118:6:HAL_GPIO_EXTI_Callback	16	static
main.c:136:5:main	56	static
main.c:234:6:SystemClock_Config	88	static
main.c:278:13:MX_ADC1_Init	24	static
main.c:325:13:MX_GPIO_Init	32	static
main.c:379:6:Error_Handler	4	static,ignoring_inline_asm
